Running: xsim.dir/CB2CE_TB_behav/xsimk.exe -simmode gui -wdb CB2CE_TB_behav.wdb -simrunnum 0 -socket 50610
Design successfully loaded
Design Loading Memory Usage: 4852 KB (Peak: 4852 KB)
Design Loading CPU Usage: 15 ms
Simulation completed
Simulation Memory Usage: 5604 KB (Peak: 5604 KB)
Simulation CPU Usage: 61 ms
