Copyright 1986-2018 Xilinx, Inc. All Rights Reserved.
--------------------------------------------------------------------------------------------------------------------------------------------------------------------------------
| Tool Version : Vivado v.2018.2 (win64) Build 2258646 Thu Jun 14 20:03:12 MDT 2018
| Date         : Mon Jan 28 13:48:36 2019
| Host         : DESKTOP running 64-bit major release  (build 9200)
| Command      : report_timing_summary -max_paths 10 -file top_timing_summary_routed.rpt -pb top_timing_summary_routed.pb -rpx top_timing_summary_routed.rpx -warn_on_violation
| Design       : top
| Device       : 7z020-clg400
| Speed File   : -1  PRODUCTION 1.11 2014-09-11
--------------------------------------------------------------------------------------------------------------------------------------------------------------------------------

Timing Summary Report

------------------------------------------------------------------------------------------------
| Timer Settings
| --------------
------------------------------------------------------------------------------------------------

  Enable Multi Corner Analysis               :  Yes
  Enable Pessimism Removal                   :  Yes
  Pessimism Removal Resolution               :  Nearest Common Node
  Enable Input Delay Default Clock           :  No
  Enable Preset / Clear Arcs                 :  No
  Disable Flight Delays                      :  No
  Ignore I/O Paths                           :  No
  Timing Early Launch at Borrowing Latches   :  false

  Corner  Analyze    Analyze    
  Name    Max Paths  Min Paths  
  ------  ---------  ---------  
  Slow    Yes        Yes        
  Fast    Yes        Yes        



check_timing report

Table of Contents
-----------------
1. checking no_clock
2. checking constant_clock
3. checking pulse_width_clock
4. checking unconstrained_internal_endpoints
5. checking no_input_delay
6. checking no_output_delay
7. checking multiple_clock
8. checking generated_clocks
9. checking loops
10. checking partial_input_delay
11. checking partial_output_delay
12. checking latch_loops

1. checking no_clock
--------------------
 There is 1 register/latch pin with no clock driven by root clock pin: btns[1] (HIGH)


2. checking constant_clock
--------------------------
 There are 0 register/latch pins with constant_clock.


3. checking pulse_width_clock
-----------------------------
 There are 0 register/latch pins which need pulse_width check


4. checking unconstrained_internal_endpoints
--------------------------------------------
 There is 1 pin that is not constrained for maximum delay. (HIGH)

 There are 0 pins that are not constrained for maximum delay due to constant clock.


5. checking no_input_delay
--------------------------
 There is 1 input port with no input delay specified. (HIGH)

 There are 0 input ports with no input delay but user has a false path constraint.


6. checking no_output_delay
---------------------------
 There are 4 ports with no output delay specified. (HIGH)

 There are 0 ports with no output delay but user has a false path constraint

 There are 0 ports with no output delay but with a timing clock defined on it or propagating through it


7. checking multiple_clock
--------------------------
 There are 0 register/latch pins with multiple clocks.


8. checking generated_clocks
----------------------------
 There are 0 generated clocks that are not connected to a clock source.


9. checking loops
-----------------
 There are 0 combinational loops in the design.


10. checking partial_input_delay
--------------------------------
 There are 0 input ports with partial input delay specified.


11. checking partial_output_delay
---------------------------------
 There are 0 ports with partial output delay specified.


12. checking latch_loops
------------------------
 There are 0 combinational latch loops in the design through latch input



------------------------------------------------------------------------------------------------
| Design Timing Summary
| ---------------------
------------------------------------------------------------------------------------------------

    WNS(ns)      TNS(ns)  TNS Failing Endpoints  TNS Total Endpoints      WHS(ns)      THS(ns)  THS Failing Endpoints  THS Total Endpoints     WPWS(ns)     TPWS(ns)  TPWS Failing Endpoints  TPWS Total Endpoints  
    -------      -------  ---------------------  -------------------      -------      -------  ---------------------  -------------------     --------     --------  ----------------------  --------------------  
      6.482        0.000                      0                    4        0.322        0.000                      0                    4        3.500        0.000                       0                     4  


All user specified timing constraints are met.


------------------------------------------------------------------------------------------------
| Clock Summary
| -------------
------------------------------------------------------------------------------------------------

Clock        Waveform(ns)         Period(ns)      Frequency(MHz)
-----        ------------         ----------      --------------
sys_clk_pin  {0.000 4.000}        8.000           125.000         


------------------------------------------------------------------------------------------------
| Intra Clock Table
| -----------------
------------------------------------------------------------------------------------------------

Clock             WNS(ns)      TNS(ns)  TNS Failing Endpoints  TNS Total Endpoints      WHS(ns)      THS(ns)  THS Failing Endpoints  THS Total Endpoints     WPWS(ns)     TPWS(ns)  TPWS Failing Endpoints  TPWS Total Endpoints  
-----             -------      -------  ---------------------  -------------------      -------      -------  ---------------------  -------------------     --------     --------  ----------------------  --------------------  
sys_clk_pin         6.482        0.000                      0                    4        0.322        0.000                      0                    4        3.500        0.000                       0                     4  


------------------------------------------------------------------------------------------------
| Inter Clock Table
| -----------------
------------------------------------------------------------------------------------------------

From Clock    To Clock          WNS(ns)      TNS(ns)  TNS Failing Endpoints  TNS Total Endpoints      WHS(ns)      THS(ns)  THS Failing Endpoints  THS Total Endpoints  
----------    --------          -------      -------  ---------------------  -------------------      -------      -------  ---------------------  -------------------  


------------------------------------------------------------------------------------------------
| Other Path Groups Table
| -----------------------
------------------------------------------------------------------------------------------------

Path Group    From Clock    To Clock          WNS(ns)      TNS(ns)  TNS Failing Endpoints  TNS Total Endpoints      WHS(ns)      THS(ns)  THS Failing Endpoints  THS Total Endpoints  
----------    ----------    --------          -------      -------  ---------------------  -------------------      -------      -------  ---------------------  -------------------  


------------------------------------------------------------------------------------------------
| Timing Details
| --------------
------------------------------------------------------------------------------------------------


---------------------------------------------------------------------------------------------------
From Clock:  sys_clk_pin
  To Clock:  sys_clk_pin

Setup :            0  Failing Endpoints,  Worst Slack        6.482ns,  Total Violation        0.000ns
Hold  :            0  Failing Endpoints,  Worst Slack        0.322ns,  Total Violation        0.000ns
PW    :            0  Failing Endpoints,  Worst Slack        3.500ns,  Total Violation        0.000ns
---------------------------------------------------------------------------------------------------


Max Delay Paths
--------------------------------------------------------------------------------------
Slack (MET) :             6.482ns  (required time - arrival time)
  Source:                 CB2CE_uut/CS_reg[0]/C
                            (rising edge-triggered cell FDCE clocked by sys_clk_pin  {rise@0.000ns fall@4.000ns period=8.000ns})
  Destination:            CB2CE_uut/CS_reg[0]/D
                            (rising edge-triggered cell FDCE clocked by sys_clk_pin  {rise@0.000ns fall@4.000ns period=8.000ns})
  Path Group:             sys_clk_pin
  Path Type:              Setup (Max at Slow Process Corner)
  Requirement:            8.000ns  (sys_clk_pin rise@8.000ns - sys_clk_pin rise@0.000ns)
  Data Path Delay:        1.512ns  (logic 0.580ns (38.366%)  route 0.932ns (61.634%))
  Logic Levels:           1  (LUT1=1)
  Clock Path Skew:        0.000ns (DCD - SCD + CPR)
    Destination Clock Delay (DCD):    5.625ns = ( 13.625 - 8.000 ) 
    Source Clock Delay      (SCD):    6.131ns
    Clock Pessimism Removal (CPR):    0.506ns
  Clock Uncertainty:      0.035ns  ((TSJ^2 + TIJ^2)^1/2 + DJ) / 2 + PE
    Total System Jitter     (TSJ):    0.071ns
    Total Input Jitter      (TIJ):    0.000ns
    Discrete Jitter          (DJ):    0.000ns
    Phase Error              (PE):    0.000ns

    Location             Delay type                Incr(ns)  Path(ns)    Netlist Resource(s)
  -------------------------------------------------------------------    -------------------
                         (clock sys_clk_pin rise edge)
                                                      0.000     0.000 r  
    H16                                               0.000     0.000 r  clk (IN)
                         net (fo=0)                   0.000     0.000    clk
    H16                  IBUF (Prop_ibuf_I_O)         1.451     1.451 r  clk_IBUF_inst/O
                         net (fo=1, routed)           2.522     3.973    clk_IBUF
    BUFGCTRL_X0Y16       BUFG (Prop_bufg_I_O)         0.101     4.074 r  clk_IBUF_BUFG_inst/O
                         net (fo=3, routed)           2.057     6.131    CB2CE_uut/CLK
    SLICE_X113Y104       FDCE                                         r  CB2CE_uut/CS_reg[0]/C
  -------------------------------------------------------------------    -------------------
    SLICE_X113Y104       FDCE (Prop_fdce_C_Q)         0.456     6.587 f  CB2CE_uut/CS_reg[0]/Q
                         net (fo=5, routed)           0.932     7.518    CB2CE_uut/leds_OBUF[2]
    SLICE_X113Y104       LUT1 (Prop_lut1_I0_O)        0.124     7.642 r  CB2CE_uut/CS[0]_i_1/O
                         net (fo=1, routed)           0.000     7.642    CB2CE_uut/plusOp[0]
    SLICE_X113Y104       FDCE                                         r  CB2CE_uut/CS_reg[0]/D
  -------------------------------------------------------------------    -------------------

                         (clock sys_clk_pin rise edge)
                                                      8.000     8.000 r  
    H16                                               0.000     8.000 r  clk (IN)
                         net (fo=0)                   0.000     8.000    clk
    H16                  IBUF (Prop_ibuf_I_O)         1.380     9.380 r  clk_IBUF_inst/O
                         net (fo=1, routed)           2.293    11.673    clk_IBUF
    BUFGCTRL_X0Y16       BUFG (Prop_bufg_I_O)         0.091    11.764 r  clk_IBUF_BUFG_inst/O
                         net (fo=3, routed)           1.860    13.625    CB2CE_uut/CLK
    SLICE_X113Y104       FDCE                                         r  CB2CE_uut/CS_reg[0]/C
                         clock pessimism              0.506    14.131    
                         clock uncertainty           -0.035    14.095    
    SLICE_X113Y104       FDCE (Setup_fdce_C_D)        0.029    14.124    CB2CE_uut/CS_reg[0]
  -------------------------------------------------------------------
                         required time                         14.124    
                         arrival time                          -7.642    
  -------------------------------------------------------------------
                         slack                                  6.482    

Slack (MET) :             6.673ns  (required time - arrival time)
  Source:                 CB2CE_uut/CS_reg[0]/C
                            (rising edge-triggered cell FDCE clocked by sys_clk_pin  {rise@0.000ns fall@4.000ns period=8.000ns})
  Destination:            CB2CE_uut/CS_reg[1]/D
                            (rising edge-triggered cell FDCE clocked by sys_clk_pin  {rise@0.000ns fall@4.000ns period=8.000ns})
  Path Group:             sys_clk_pin
  Path Type:              Setup (Max at Slow Process Corner)
  Requirement:            8.000ns  (sys_clk_pin rise@8.000ns - sys_clk_pin rise@0.000ns)
  Data Path Delay:        1.339ns  (logic 0.575ns (42.951%)  route 0.764ns (57.049%))
  Logic Levels:           1  (LUT2=1)
  Clock Path Skew:        0.000ns (DCD - SCD + CPR)
    Destination Clock Delay (DCD):    5.625ns = ( 13.625 - 8.000 ) 
    Source Clock Delay      (SCD):    6.131ns
    Clock Pessimism Removal (CPR):    0.506ns
  Clock Uncertainty:      0.035ns  ((TSJ^2 + TIJ^2)^1/2 + DJ) / 2 + PE
    Total System Jitter     (TSJ):    0.071ns
    Total Input Jitter      (TIJ):    0.000ns
    Discrete Jitter          (DJ):    0.000ns
    Phase Error              (PE):    0.000ns

    Location             Delay type                Incr(ns)  Path(ns)    Netlist Resource(s)
  -------------------------------------------------------------------    -------------------
                         (clock sys_clk_pin rise edge)
                                                      0.000     0.000 r  
    H16                                               0.000     0.000 r  clk (IN)
                         net (fo=0)                   0.000     0.000    clk
    H16                  IBUF (Prop_ibuf_I_O)         1.451     1.451 r  clk_IBUF_inst/O
                         net (fo=1, routed)           2.522     3.973    clk_IBUF
    BUFGCTRL_X0Y16       BUFG (Prop_bufg_I_O)         0.101     4.074 r  clk_IBUF_BUFG_inst/O
                         net (fo=3, routed)           2.057     6.131    CB2CE_uut/CLK
    SLICE_X113Y104       FDCE                                         r  CB2CE_uut/CS_reg[0]/C
  -------------------------------------------------------------------    -------------------
    SLICE_X113Y104       FDCE (Prop_fdce_C_Q)         0.456     6.587 r  CB2CE_uut/CS_reg[0]/Q
                         net (fo=5, routed)           0.764     7.350    CB2CE_uut/leds_OBUF[2]
    SLICE_X113Y104       LUT2 (Prop_lut2_I0_O)        0.119     7.469 r  CB2CE_uut/CS[1]_i_1/O
                         net (fo=1, routed)           0.000     7.469    CB2CE_uut/plusOp[1]
    SLICE_X113Y104       FDCE                                         r  CB2CE_uut/CS_reg[1]/D
  -------------------------------------------------------------------    -------------------

                         (clock sys_clk_pin rise edge)
                                                      8.000     8.000 r  
    H16                                               0.000     8.000 r  clk (IN)
                         net (fo=0)                   0.000     8.000    clk
    H16                  IBUF (Prop_ibuf_I_O)         1.380     9.380 r  clk_IBUF_inst/O
                         net (fo=1, routed)           2.293    11.673    clk_IBUF
    BUFGCTRL_X0Y16       BUFG (Prop_bufg_I_O)         0.091    11.764 r  clk_IBUF_BUFG_inst/O
                         net (fo=3, routed)           1.860    13.625    CB2CE_uut/CLK
    SLICE_X113Y104       FDCE                                         r  CB2CE_uut/CS_reg[1]/C
                         clock pessimism              0.506    14.131    
                         clock uncertainty           -0.035    14.095    
    SLICE_X113Y104       FDCE (Setup_fdce_C_D)        0.047    14.142    CB2CE_uut/CS_reg[1]
  -------------------------------------------------------------------
                         required time                         14.142    
                         arrival time                          -7.469    
  -------------------------------------------------------------------
                         slack                                  6.673    

Slack (MET) :             6.784ns  (required time - arrival time)
  Source:                 singleshot_uut/QB_reg/C
                            (rising edge-triggered cell FDRE clocked by sys_clk_pin  {rise@0.000ns fall@4.000ns period=8.000ns})
  Destination:            CB2CE_uut/CS_reg[0]/CE
                            (rising edge-triggered cell FDCE clocked by sys_clk_pin  {rise@0.000ns fall@4.000ns period=8.000ns})
  Path Group:             sys_clk_pin
  Path Type:              Setup (Max at Slow Process Corner)
  Requirement:            8.000ns  (sys_clk_pin rise@8.000ns - sys_clk_pin rise@0.000ns)
  Data Path Delay:        0.951ns  (logic 0.456ns (47.955%)  route 0.495ns (52.045%))
  Logic Levels:           0  
  Clock Path Skew:        -0.025ns (DCD - SCD + CPR)
    Destination Clock Delay (DCD):    5.625ns = ( 13.625 - 8.000 ) 
    Source Clock Delay      (SCD):    6.131ns
    Clock Pessimism Removal (CPR):    0.481ns
  Clock Uncertainty:      0.035ns  ((TSJ^2 + TIJ^2)^1/2 + DJ) / 2 + PE
    Total System Jitter     (TSJ):    0.071ns
    Total Input Jitter      (TIJ):    0.000ns
    Discrete Jitter          (DJ):    0.000ns
    Phase Error              (PE):    0.000ns

    Location             Delay type                Incr(ns)  Path(ns)    Netlist Resource(s)
  -------------------------------------------------------------------    -------------------
                         (clock sys_clk_pin rise edge)
                                                      0.000     0.000 r  
    H16                                               0.000     0.000 r  clk (IN)
                         net (fo=0)                   0.000     0.000    clk
    H16                  IBUF (Prop_ibuf_I_O)         1.451     1.451 r  clk_IBUF_inst/O
                         net (fo=1, routed)           2.522     3.973    clk_IBUF
    BUFGCTRL_X0Y16       BUFG (Prop_bufg_I_O)         0.101     4.074 r  clk_IBUF_BUFG_inst/O
                         net (fo=3, routed)           2.057     6.131    singleshot_uut/CLK
    SLICE_X113Y106       FDRE                                         r  singleshot_uut/QB_reg/C
  -------------------------------------------------------------------    -------------------
    SLICE_X113Y106       FDRE (Prop_fdre_C_Q)         0.456     6.587 r  singleshot_uut/QB_reg/Q
                         net (fo=4, routed)           0.495     7.082    CB2CE_uut/E[0]
    SLICE_X113Y104       FDCE                                         r  CB2CE_uut/CS_reg[0]/CE
  -------------------------------------------------------------------    -------------------

                         (clock sys_clk_pin rise edge)
                                                      8.000     8.000 r  
    H16                                               0.000     8.000 r  clk (IN)
                         net (fo=0)                   0.000     8.000    clk
    H16                  IBUF (Prop_ibuf_I_O)         1.380     9.380 r  clk_IBUF_inst/O
                         net (fo=1, routed)           2.293    11.673    clk_IBUF
    BUFGCTRL_X0Y16       BUFG (Prop_bufg_I_O)         0.091    11.764 r  clk_IBUF_BUFG_inst/O
                         net (fo=3, routed)           1.860    13.625    CB2CE_uut/CLK
    SLICE_X113Y104       FDCE                                         r  CB2CE_uut/CS_reg[0]/C
                         clock pessimism              0.481    14.106    
                         clock uncertainty           -0.035    14.070    
    SLICE_X113Y104       FDCE (Setup_fdce_C_CE)      -0.205    13.865    CB2CE_uut/CS_reg[0]
  -------------------------------------------------------------------
                         required time                         13.865    
                         arrival time                          -7.082    
  -------------------------------------------------------------------
                         slack                                  6.784    

Slack (MET) :             6.784ns  (required time - arrival time)
  Source:                 singleshot_uut/QB_reg/C
                            (rising edge-triggered cell FDRE clocked by sys_clk_pin  {rise@0.000ns fall@4.000ns period=8.000ns})
  Destination:            CB2CE_uut/CS_reg[1]/CE
                            (rising edge-triggered cell FDCE clocked by sys_clk_pin  {rise@0.000ns fall@4.000ns period=8.000ns})
  Path Group:             sys_clk_pin
  Path Type:              Setup (Max at Slow Process Corner)
  Requirement:            8.000ns  (sys_clk_pin rise@8.000ns - sys_clk_pin rise@0.000ns)
  Data Path Delay:        0.951ns  (logic 0.456ns (47.955%)  route 0.495ns (52.045%))
  Logic Levels:           0  
  Clock Path Skew:        -0.025ns (DCD - SCD + CPR)
    Destination Clock Delay (DCD):    5.625ns = ( 13.625 - 8.000 ) 
    Source Clock Delay      (SCD):    6.131ns
    Clock Pessimism Removal (CPR):    0.481ns
  Clock Uncertainty:      0.035ns  ((TSJ^2 + TIJ^2)^1/2 + DJ) / 2 + PE
    Total System Jitter     (TSJ):    0.071ns
    Total Input Jitter      (TIJ):    0.000ns
    Discrete Jitter          (DJ):    0.000ns
    Phase Error              (PE):    0.000ns

    Location             Delay type                Incr(ns)  Path(ns)    Netlist Resource(s)
  -------------------------------------------------------------------    -------------------
                         (clock sys_clk_pin rise edge)
                                                      0.000     0.000 r  
    H16                                               0.000     0.000 r  clk (IN)
                         net (fo=0)                   0.000     0.000    clk
    H16                  IBUF (Prop_ibuf_I_O)         1.451     1.451 r  clk_IBUF_inst/O
                         net (fo=1, routed)           2.522     3.973    clk_IBUF
    BUFGCTRL_X0Y16       BUFG (Prop_bufg_I_O)         0.101     4.074 r  clk_IBUF_BUFG_inst/O
                         net (fo=3, routed)           2.057     6.131    singleshot_uut/CLK
    SLICE_X113Y106       FDRE                                         r  singleshot_uut/QB_reg/C
  -------------------------------------------------------------------    -------------------
    SLICE_X113Y106       FDRE (Prop_fdre_C_Q)         0.456     6.587 r  singleshot_uut/QB_reg/Q
                         net (fo=4, routed)           0.495     7.082    CB2CE_uut/E[0]
    SLICE_X113Y104       FDCE                                         r  CB2CE_uut/CS_reg[1]/CE
  -------------------------------------------------------------------    -------------------

                         (clock sys_clk_pin rise edge)
                                                      8.000     8.000 r  
    H16                                               0.000     8.000 r  clk (IN)
                         net (fo=0)                   0.000     8.000    clk
    H16                  IBUF (Prop_ibuf_I_O)         1.380     9.380 r  clk_IBUF_inst/O
                         net (fo=1, routed)           2.293    11.673    clk_IBUF
    BUFGCTRL_X0Y16       BUFG (Prop_bufg_I_O)         0.091    11.764 r  clk_IBUF_BUFG_inst/O
                         net (fo=3, routed)           1.860    13.625    CB2CE_uut/CLK
    SLICE_X113Y104       FDCE                                         r  CB2CE_uut/CS_reg[1]/C
                         clock pessimism              0.481    14.106    
                         clock uncertainty           -0.035    14.070    
    SLICE_X113Y104       FDCE (Setup_fdce_C_CE)      -0.205    13.865    CB2CE_uut/CS_reg[1]
  -------------------------------------------------------------------
                         required time                         13.865    
                         arrival time                          -7.082    
  -------------------------------------------------------------------
                         slack                                  6.784    





Min Delay Paths
--------------------------------------------------------------------------------------
Slack (MET) :             0.322ns  (arrival time - required time)
  Source:                 CB2CE_uut/CS_reg[1]/C
                            (rising edge-triggered cell FDCE clocked by sys_clk_pin  {rise@0.000ns fall@4.000ns period=8.000ns})
  Destination:            CB2CE_uut/CS_reg[1]/D
                            (rising edge-triggered cell FDCE clocked by sys_clk_pin  {rise@0.000ns fall@4.000ns period=8.000ns})
  Path Group:             sys_clk_pin
  Path Type:              Hold (Min at Fast Process Corner)
  Requirement:            0.000ns  (sys_clk_pin rise@0.000ns - sys_clk_pin rise@0.000ns)
  Data Path Delay:        0.426ns  (logic 0.184ns (43.151%)  route 0.242ns (56.849%))
  Logic Levels:           1  (LUT2=1)
  Clock Path Skew:        0.000ns (DCD - SCD - CPR)
    Destination Clock Delay (DCD):    2.336ns
    Source Clock Delay      (SCD):    1.805ns
    Clock Pessimism Removal (CPR):    0.532ns

    Location             Delay type                Incr(ns)  Path(ns)    Netlist Resource(s)
  -------------------------------------------------------------------    -------------------
                         (clock sys_clk_pin rise edge)
                                                      0.000     0.000 r  
    H16                                               0.000     0.000 r  clk (IN)
                         net (fo=0)                   0.000     0.000    clk
    H16                  IBUF (Prop_ibuf_I_O)         0.219     0.219 r  clk_IBUF_inst/O
                         net (fo=1, routed)           0.842     1.060    clk_IBUF
    BUFGCTRL_X0Y16       BUFG (Prop_bufg_I_O)         0.026     1.086 r  clk_IBUF_BUFG_inst/O
                         net (fo=3, routed)           0.718     1.805    CB2CE_uut/CLK
    SLICE_X113Y104       FDCE                                         r  CB2CE_uut/CS_reg[1]/C
  -------------------------------------------------------------------    -------------------
    SLICE_X113Y104       FDCE (Prop_fdce_C_Q)         0.141     1.946 r  CB2CE_uut/CS_reg[1]/Q
                         net (fo=4, routed)           0.242     2.188    CB2CE_uut/leds_OBUF[3]
    SLICE_X113Y104       LUT2 (Prop_lut2_I1_O)        0.043     2.231 r  CB2CE_uut/CS[1]_i_1/O
                         net (fo=1, routed)           0.000     2.231    CB2CE_uut/plusOp[1]
    SLICE_X113Y104       FDCE                                         r  CB2CE_uut/CS_reg[1]/D
  -------------------------------------------------------------------    -------------------

                         (clock sys_clk_pin rise edge)
                                                      0.000     0.000 r  
    H16                                               0.000     0.000 r  clk (IN)
                         net (fo=0)                   0.000     0.000    clk
    H16                  IBUF (Prop_ibuf_I_O)         0.406     0.406 r  clk_IBUF_inst/O
                         net (fo=1, routed)           0.907     1.313    clk_IBUF
    BUFGCTRL_X0Y16       BUFG (Prop_bufg_I_O)         0.029     1.342 r  clk_IBUF_BUFG_inst/O
                         net (fo=3, routed)           0.994     2.336    CB2CE_uut/CLK
    SLICE_X113Y104       FDCE                                         r  CB2CE_uut/CS_reg[1]/C
                         clock pessimism             -0.532     1.805    
    SLICE_X113Y104       FDCE (Hold_fdce_C_D)         0.104     1.909    CB2CE_uut/CS_reg[1]
  -------------------------------------------------------------------
                         required time                         -1.909    
                         arrival time                           2.231    
  -------------------------------------------------------------------
                         slack                                  0.322    

Slack (MET) :             0.352ns  (arrival time - required time)
  Source:                 singleshot_uut/QB_reg/C
                            (rising edge-triggered cell FDRE clocked by sys_clk_pin  {rise@0.000ns fall@4.000ns period=8.000ns})
  Destination:            CB2CE_uut/CS_reg[0]/CE
                            (rising edge-triggered cell FDCE clocked by sys_clk_pin  {rise@0.000ns fall@4.000ns period=8.000ns})
  Path Group:             sys_clk_pin
  Path Type:              Hold (Min at Fast Process Corner)
  Requirement:            0.000ns  (sys_clk_pin rise@0.000ns - sys_clk_pin rise@0.000ns)
  Data Path Delay:        0.329ns  (logic 0.141ns (42.871%)  route 0.188ns (57.129%))
  Logic Levels:           0  
  Clock Path Skew:        0.016ns (DCD - SCD - CPR)
    Destination Clock Delay (DCD):    2.336ns
    Source Clock Delay      (SCD):    1.805ns
    Clock Pessimism Removal (CPR):    0.516ns

    Location             Delay type                Incr(ns)  Path(ns)    Netlist Resource(s)
  -------------------------------------------------------------------    -------------------
                         (clock sys_clk_pin rise edge)
                                                      0.000     0.000 r  
    H16                                               0.000     0.000 r  clk (IN)
                         net (fo=0)                   0.000     0.000    clk
    H16                  IBUF (Prop_ibuf_I_O)         0.219     0.219 r  clk_IBUF_inst/O
                         net (fo=1, routed)           0.842     1.060    clk_IBUF
    BUFGCTRL_X0Y16       BUFG (Prop_bufg_I_O)         0.026     1.086 r  clk_IBUF_BUFG_inst/O
                         net (fo=3, routed)           0.718     1.805    singleshot_uut/CLK
    SLICE_X113Y106       FDRE                                         r  singleshot_uut/QB_reg/C
  -------------------------------------------------------------------    -------------------
    SLICE_X113Y106       FDRE (Prop_fdre_C_Q)         0.141     1.946 r  singleshot_uut/QB_reg/Q
                         net (fo=4, routed)           0.188     2.133    CB2CE_uut/E[0]
    SLICE_X113Y104       FDCE                                         r  CB2CE_uut/CS_reg[0]/CE
  -------------------------------------------------------------------    -------------------

                         (clock sys_clk_pin rise edge)
                                                      0.000     0.000 r  
    H16                                               0.000     0.000 r  clk (IN)
                         net (fo=0)                   0.000     0.000    clk
    H16                  IBUF (Prop_ibuf_I_O)         0.406     0.406 r  clk_IBUF_inst/O
                         net (fo=1, routed)           0.907     1.313    clk_IBUF
    BUFGCTRL_X0Y16       BUFG (Prop_bufg_I_O)         0.029     1.342 r  clk_IBUF_BUFG_inst/O
                         net (fo=3, routed)           0.994     2.336    CB2CE_uut/CLK
    SLICE_X113Y104       FDCE                                         r  CB2CE_uut/CS_reg[0]/C
                         clock pessimism             -0.516     1.821    
    SLICE_X113Y104       FDCE (Hold_fdce_C_CE)       -0.039     1.782    CB2CE_uut/CS_reg[0]
  -------------------------------------------------------------------
                         required time                         -1.782    
                         arrival time                           2.133    
  -------------------------------------------------------------------
                         slack                                  0.352    

Slack (MET) :             0.352ns  (arrival time - required time)
  Source:                 singleshot_uut/QB_reg/C
                            (rising edge-triggered cell FDRE clocked by sys_clk_pin  {rise@0.000ns fall@4.000ns period=8.000ns})
  Destination:            CB2CE_uut/CS_reg[1]/CE
                            (rising edge-triggered cell FDCE clocked by sys_clk_pin  {rise@0.000ns fall@4.000ns period=8.000ns})
  Path Group:             sys_clk_pin
  Path Type:              Hold (Min at Fast Process Corner)
  Requirement:            0.000ns  (sys_clk_pin rise@0.000ns - sys_clk_pin rise@0.000ns)
  Data Path Delay:        0.329ns  (logic 0.141ns (42.871%)  route 0.188ns (57.129%))
  Logic Levels:           0  
  Clock Path Skew:        0.016ns (DCD - SCD - CPR)
    Destination Clock Delay (DCD):    2.336ns
    Source Clock Delay      (SCD):    1.805ns
    Clock Pessimism Removal (CPR):    0.516ns

    Location             Delay type                Incr(ns)  Path(ns)    Netlist Resource(s)
  -------------------------------------------------------------------    -------------------
                         (clock sys_clk_pin rise edge)
                                                      0.000     0.000 r  
    H16                                               0.000     0.000 r  clk (IN)
                         net (fo=0)                   0.000     0.000    clk
    H16                  IBUF (Prop_ibuf_I_O)         0.219     0.219 r  clk_IBUF_inst/O
                         net (fo=1, routed)           0.842     1.060    clk_IBUF
    BUFGCTRL_X0Y16       BUFG (Prop_bufg_I_O)         0.026     1.086 r  clk_IBUF_BUFG_inst/O
                         net (fo=3, routed)           0.718     1.805    singleshot_uut/CLK
    SLICE_X113Y106       FDRE                                         r  singleshot_uut/QB_reg/C
  -------------------------------------------------------------------    -------------------
    SLICE_X113Y106       FDRE (Prop_fdre_C_Q)         0.141     1.946 r  singleshot_uut/QB_reg/Q
                         net (fo=4, routed)           0.188     2.133    CB2CE_uut/E[0]
    SLICE_X113Y104       FDCE                                         r  CB2CE_uut/CS_reg[1]/CE
  -------------------------------------------------------------------    -------------------

                         (clock sys_clk_pin rise edge)
                                                      0.000     0.000 r  
    H16                                               0.000     0.000 r  clk (IN)
                         net (fo=0)                   0.000     0.000    clk
    H16                  IBUF (Prop_ibuf_I_O)         0.406     0.406 r  clk_IBUF_inst/O
                         net (fo=1, routed)           0.907     1.313    clk_IBUF
    BUFGCTRL_X0Y16       BUFG (Prop_bufg_I_O)         0.029     1.342 r  clk_IBUF_BUFG_inst/O
                         net (fo=3, routed)           0.994     2.336    CB2CE_uut/CLK
    SLICE_X113Y104       FDCE                                         r  CB2CE_uut/CS_reg[1]/C
                         clock pessimism             -0.516     1.821    
    SLICE_X113Y104       FDCE (Hold_fdce_C_CE)       -0.039     1.782    CB2CE_uut/CS_reg[1]
  -------------------------------------------------------------------
                         required time                         -1.782    
                         arrival time                           2.133    
  -------------------------------------------------------------------
                         slack                                  0.352    

Slack (MET) :             0.532ns  (arrival time - required time)
  Source:                 CB2CE_uut/CS_reg[0]/C
                            (rising edge-triggered cell FDCE clocked by sys_clk_pin  {rise@0.000ns fall@4.000ns period=8.000ns})
  Destination:            CB2CE_uut/CS_reg[0]/D
                            (rising edge-triggered cell FDCE clocked by sys_clk_pin  {rise@0.000ns fall@4.000ns period=8.000ns})
  Path Group:             sys_clk_pin
  Path Type:              Hold (Min at Fast Process Corner)
  Requirement:            0.000ns  (sys_clk_pin rise@0.000ns - sys_clk_pin rise@0.000ns)
  Data Path Delay:        0.623ns  (logic 0.186ns (29.868%)  route 0.437ns (70.132%))
  Logic Levels:           1  (LUT1=1)
  Clock Path Skew:        0.000ns (DCD - SCD - CPR)
    Destination Clock Delay (DCD):    2.336ns
    Source Clock Delay      (SCD):    1.805ns
    Clock Pessimism Removal (CPR):    0.532ns

    Location             Delay type                Incr(ns)  Path(ns)    Netlist Resource(s)
  -------------------------------------------------------------------    -------------------
                         (clock sys_clk_pin rise edge)
                                                      0.000     0.000 r  
    H16                                               0.000     0.000 r  clk (IN)
                         net (fo=0)                   0.000     0.000    clk
    H16                  IBUF (Prop_ibuf_I_O)         0.219     0.219 r  clk_IBUF_inst/O
                         net (fo=1, routed)           0.842     1.060    clk_IBUF
    BUFGCTRL_X0Y16       BUFG (Prop_bufg_I_O)         0.026     1.086 r  clk_IBUF_BUFG_inst/O
                         net (fo=3, routed)           0.718     1.805    CB2CE_uut/CLK
    SLICE_X113Y104       FDCE                                         r  CB2CE_uut/CS_reg[0]/C
  -------------------------------------------------------------------    -------------------
    SLICE_X113Y104       FDCE (Prop_fdce_C_Q)         0.141     1.946 f  CB2CE_uut/CS_reg[0]/Q
                         net (fo=5, routed)           0.437     2.382    CB2CE_uut/leds_OBUF[2]
    SLICE_X113Y104       LUT1 (Prop_lut1_I0_O)        0.045     2.427 r  CB2CE_uut/CS[0]_i_1/O
                         net (fo=1, routed)           0.000     2.427    CB2CE_uut/plusOp[0]
    SLICE_X113Y104       FDCE                                         r  CB2CE_uut/CS_reg[0]/D
  -------------------------------------------------------------------    -------------------

                         (clock sys_clk_pin rise edge)
                                                      0.000     0.000 r  
    H16                                               0.000     0.000 r  clk (IN)
                         net (fo=0)                   0.000     0.000    clk
    H16                  IBUF (Prop_ibuf_I_O)         0.406     0.406 r  clk_IBUF_inst/O
                         net (fo=1, routed)           0.907     1.313    clk_IBUF
    BUFGCTRL_X0Y16       BUFG (Prop_bufg_I_O)         0.029     1.342 r  clk_IBUF_BUFG_inst/O
                         net (fo=3, routed)           0.994     2.336    CB2CE_uut/CLK
    SLICE_X113Y104       FDCE                                         r  CB2CE_uut/CS_reg[0]/C
                         clock pessimism             -0.532     1.805    
    SLICE_X113Y104       FDCE (Hold_fdce_C_D)         0.091     1.896    CB2CE_uut/CS_reg[0]
  -------------------------------------------------------------------
                         required time                         -1.896    
                         arrival time                           2.427    
  -------------------------------------------------------------------
                         slack                                  0.532    





Pulse Width Checks
--------------------------------------------------------------------------------------
Clock Name:         sys_clk_pin
Waveform(ns):       { 0.000 4.000 }
Period(ns):         8.000
Sources:            { clk }

Check Type        Corner  Lib Pin  Reference Pin  Required(ns)  Actual(ns)  Slack(ns)  Location        Pin
Min Period        n/a     BUFG/I   n/a            2.155         8.000       5.845      BUFGCTRL_X0Y16  clk_IBUF_BUFG_inst/I
Min Period        n/a     FDCE/C   n/a            1.000         8.000       7.000      SLICE_X113Y104  CB2CE_uut/CS_reg[0]/C
Min Period        n/a     FDCE/C   n/a            1.000         8.000       7.000      SLICE_X113Y104  CB2CE_uut/CS_reg[1]/C
Min Period        n/a     FDRE/C   n/a            1.000         8.000       7.000      SLICE_X113Y106  singleshot_uut/QB_reg/C
Low Pulse Width   Slow    FDCE/C   n/a            0.500         4.000       3.500      SLICE_X113Y104  CB2CE_uut/CS_reg[0]/C
Low Pulse Width   Fast    FDCE/C   n/a            0.500         4.000       3.500      SLICE_X113Y104  CB2CE_uut/CS_reg[0]/C
Low Pulse Width   Slow    FDCE/C   n/a            0.500         4.000       3.500      SLICE_X113Y104  CB2CE_uut/CS_reg[1]/C
Low Pulse Width   Fast    FDCE/C   n/a            0.500         4.000       3.500      SLICE_X113Y104  CB2CE_uut/CS_reg[1]/C
Low Pulse Width   Slow    FDRE/C   n/a            0.500         4.000       3.500      SLICE_X113Y106  singleshot_uut/QB_reg/C
Low Pulse Width   Fast    FDRE/C   n/a            0.500         4.000       3.500      SLICE_X113Y106  singleshot_uut/QB_reg/C
High Pulse Width  Slow    FDCE/C   n/a            0.500         4.000       3.500      SLICE_X113Y104  CB2CE_uut/CS_reg[0]/C
High Pulse Width  Fast    FDCE/C   n/a            0.500         4.000       3.500      SLICE_X113Y104  CB2CE_uut/CS_reg[0]/C
High Pulse Width  Slow    FDCE/C   n/a            0.500         4.000       3.500      SLICE_X113Y104  CB2CE_uut/CS_reg[1]/C
High Pulse Width  Fast    FDCE/C   n/a            0.500         4.000       3.500      SLICE_X113Y104  CB2CE_uut/CS_reg[1]/C
High Pulse Width  Slow    FDRE/C   n/a            0.500         4.000       3.500      SLICE_X113Y106  singleshot_uut/QB_reg/C
High Pulse Width  Fast    FDRE/C   n/a            0.500         4.000       3.500      SLICE_X113Y106  singleshot_uut/QB_reg/C



